# WaveFront *.obj file (generated by Autodesk ATF)

mtllib 4a322627-40f1-4867-924e-7056c459372b.mtl

g Corner

v 50.000000 -50.000000 5.000000
v -50.000000 -50.000000 5.000000
v -50.000000 -45.000000 0.000000
v 45.000000 -45.000000 0.000000
v 45.000000 50.000000 0.000000
v 50.000000 50.000000 5.000000
v -50.000000 50.000000 0.000000
v -50.000000 -50.000000 95.000000
v -50.000000 -45.000000 100.000000
v -50.000000 50.000000 100.000000
v 50.000000 -50.000000 95.000000
v 50.000000 50.000000 95.000000
v 45.000000 50.000000 100.000000
v 45.000000 -45.000000 100.000000
vt -7.500000 -0.353553 0.000000
vt 2.500000 -0.353553 0.000000
vt -7.000000 0.353553 0.000000
vt 2.500000 0.353553 0.000000
vt 0.353553 7.500000 0.000000
vt -0.353553 7.500000 0.000000
vt 0.353553 -2.000000 0.000000
vt -0.353553 -2.500000 0.000000
vt -4.500000 -4.500000 0.000000
vt 5.000000 -4.500000 0.000000
vt -4.500000 5.000000 0.000000
vt 5.000000 5.000000 0.000000
vt -0.000000 0.000000 0.000000
vt 9.500000 0.000000 0.000000
vt 9.500000 10.000000 0.000000
vt 10.000000 0.500000 0.000000
vt 10.000000 9.500000 0.000000
vt -0.000000 10.000000 0.000000
vt 0.000000 0.500000 0.000000
vt 10.000000 0.500000 0.000000
vt 0.000000 9.500000 0.000000
vt 10.000000 9.500000 0.000000
vt 0.353553 -2.500000 0.000000
vt 0.353553 7.500000 0.000000
vt -0.353553 -2.000000 0.000000
vt -0.353553 7.500000 0.000000
vt -2.500000 0.353553 0.000000
vt -2.500000 -0.353553 0.000000
vt 7.000000 0.353553 0.000000
vt 7.500000 -0.353553 0.000000
vt 0.000000 0.500000 0.000000
vt 10.000000 0.500000 0.000000
vt 0.000000 9.500000 0.000000
vt 10.000000 9.500000 0.000000
vt -0.000000 9.500000 0.000000
vt -0.000000 0.500000 0.000000
vt 0.500000 10.000000 0.000000
vt 0.500000 0.000000 0.000000
vt 10.000000 0.000000 0.000000
vt 10.000000 10.000000 0.000000
vt 4.500000 5.000000 0.000000
vt -5.000000 5.000000 0.000000
vt 4.500000 -4.500000 0.000000
vt -5.000000 -4.500000 0.000000
vn 0.000000 -0.070711 -0.070711
vn 0.000000 -0.070711 -0.070711
vn 0.000000 -0.070711 -0.070711
vn 0.000000 -0.070711 -0.070711
vn 0.070711 0.000000 -0.070711
vn 0.070711 0.000000 -0.070711
vn 0.070711 0.000000 -0.070711
vn 0.070711 0.000000 -0.070711
vn -0.000000 0.000000 -0.100000
vn -0.000000 0.000000 -0.100000
vn -0.000000 0.000000 -0.100000
vn -0.000000 0.000000 -0.100000
vn -0.100000 0.000000 0.000000
vn -0.100000 0.000000 0.000000
vn -0.100000 0.000000 0.000000
vn -0.100000 0.000000 0.000000
vn -0.100000 0.000000 0.000000
vn -0.100000 0.000000 0.000000
vn 0.000000 -0.100000 0.000000
vn 0.000000 -0.100000 0.000000
vn 0.000000 -0.100000 0.000000
vn 0.000000 -0.100000 0.000000
vn 0.070711 0.000000 0.070711
vn 0.070711 0.000000 0.070711
vn 0.070711 0.000000 0.070711
vn 0.070711 0.000000 0.070711
vn 0.000000 -0.070711 0.070711
vn 0.000000 -0.070711 0.070711
vn 0.000000 -0.070711 0.070711
vn 0.000000 -0.070711 0.070711
vn 0.100000 0.000000 0.000000
vn 0.100000 0.000000 0.000000
vn 0.100000 0.000000 0.000000
vn 0.100000 0.000000 0.000000
vn 0.000000 0.100000 0.000000
vn 0.000000 0.100000 0.000000
vn 0.000000 0.100000 0.000000
vn 0.000000 0.100000 0.000000
vn 0.000000 0.100000 0.000000
vn 0.000000 0.100000 0.000000
vn 0.000000 0.000000 0.100000
vn 0.000000 0.000000 0.100000
vn 0.000000 0.000000 0.100000
vn 0.000000 0.000000 0.100000
usemtl Steel_-_Satin
f 1/1/1 2/2/2 4/3/3
f 4/3/3 2/2/2 3/4/4
f 5/5/5 6/6/6 4/7/7
f 4/7/7 6/6/6 1/8/8
f 4/9/9 3/10/10 5/11/11
f 5/11/11 3/10/10 7/12/12
f 7/13/13 3/14/14 9/15/15
f 9/15/15 3/14/14 2/16/16
f 9/15/15 2/16/16 8/17/17
f 9/15/15 10/18/18 7/13/13
f 2/19/19 1/20/20 8/21/21
f 8/21/21 1/20/20 11/22/22
f 11/23/23 12/24/24 14/25/25
f 14/25/25 12/24/24 13/26/26
f 9/27/27 8/28/28 14/29/29
f 14/29/29 8/28/28 11/30/30
f 1/31/31 6/32/32 11/33/33
f 11/33/33 6/32/32 12/34/34
f 12/35/35 6/36/36 13/37/37
f 13/37/37 6/36/36 5/38/38
f 13/37/37 5/38/38 7/39/39
f 7/39/39 10/40/40 13/37/37
f 13/41/41 10/42/42 14/43/43
f 14/43/43 10/42/42 9/44/44
# 14 vertices
# 44 texture params
# 44 normals
# 24 facets

# 1 groups
